<?xml version="1.0" encoding="UTF-8" standalone="no"?>
<!-- Created with Inkscape (http://www.inkscape.org/) -->

<svg
   width="20"
   height="20"
   viewBox="0 0 5.2916665 5.2916668"
   version="1.1"
   id="svg43672"
   inkscape:version="1.1.1 (3bf5ae0d25, 2021-09-20)"
   sodipodi:docname="icon.svg"
   inkscape:export-filename="D:\Dokumenty\Dev\StreamDeckSwitchTo\Resources\pl.spooksoft.switchto.sdplugin\icon@2x.png"
   inkscape:export-xdpi="192"
   inkscape:export-ydpi="192"
   xmlns:inkscape="http://www.inkscape.org/namespaces/inkscape"
   xmlns:sodipodi="http://sodipodi.sourceforge.net/DTD/sodipodi-0.dtd"
   xmlns="http://www.w3.org/2000/svg"
   xmlns:svg="http://www.w3.org/2000/svg">
  <sodipodi:namedview
     id="namedview43674"
     pagecolor="#ffffff"
     bordercolor="#666666"
     borderopacity="1.0"
     inkscape:pageshadow="2"
     inkscape:pageopacity="0.0"
     inkscape:pagecheckerboard="0"
     inkscape:document-units="px"
     showgrid="true"
     units="px"
     inkscape:zoom="20.496745"
     inkscape:cx="18.929835"
     inkscape:cy="13.39237"
     inkscape:window-width="1920"
     inkscape:window-height="1009"
     inkscape:window-x="-8"
     inkscape:window-y="-8"
     inkscape:window-maximized="1"
     inkscape:current-layer="layer1">
    <inkscape:grid
       type="xygrid"
       id="grid43733" />
  </sodipodi:namedview>
  <defs
     id="defs43669" />
  <g
     inkscape:label="Warstwa 1"
     inkscape:groupmode="layer"
     id="layer1">
    <path
       id="path43770"
       style="fill:#8f8f8f;fill-opacity:1;stroke:none;stroke-width:0.264583px;stroke-linecap:butt;stroke-linejoin:miter;stroke-opacity:1"
       d="m 1.3229167,1.8520833 v 2.6458333 l 3.4395833,0 V 1.8520833 Z M 1.5875,2.1166666 l 2.9104167,0 V 2.38125 l -2.9104167,0 z m 0,0.5291667 2.9104167,0 v 1.5875 l -2.9104167,0 z"
       sodipodi:nodetypes="ccccccccccccccc" />
    <path
       id="rect44069"
       style="fill:#8f8f8f;stroke-width:0.79375;stroke-linecap:square;stroke-dasharray:1.5875, 0.79375"
       d="m 0.52916664,3.4395833 h 0.26458332 v 0 l 4e-8,0.2645834 H 1.0583333 V 3.96875 l -0.26458334,-10e-8 v 0 H 0.52916664 v 0 z"
       sodipodi:nodetypes="ccccccccccc" />
    <rect
       style="fill:#8f8f8f;fill-opacity:1;stroke:none;stroke-width:0.79375;stroke-linecap:square;stroke-dasharray:1.5875, 0.79375"
       id="rect44071"
       width="0.26458332"
       height="0.52916664"
       x="0.52916664"
       y="2.6458333"
       rx="3.6718346e-17"
       ry="3.6718346e-17" />
    <rect
       style="fill:#8f8f8f;fill-opacity:1;stroke:none;stroke-width:0.79375;stroke-linecap:square;stroke-dasharray:1.5875, 0.79375"
       id="rect44073"
       width="0.26458332"
       height="0.52916664"
       x="0.52916664"
       y="1.8520833"
       rx="3.6718346e-17"
       ry="3.6718346e-17" />
    <path
       style="fill:#8f8f8f;stroke:none;stroke-width:0.264583px;stroke-linecap:butt;stroke-linejoin:miter;stroke-opacity:1;fill-opacity:1"
       d="M 0.79374999,1.5875 H 0.52916666 V 1.0583333 H 1.0583333 V 1.3229166 H 0.79374999 Z"
       id="path44108" />
    <rect
       style="fill:#8f8f8f;fill-opacity:1;stroke:none;stroke-width:0.79375;stroke-linecap:square;stroke-dasharray:1.5875, 0.79375"
       id="rect44198"
       width="0.52916664"
       height="0.26458332"
       x="1.3229166"
       y="1.0583333"
       rx="3.6718346e-17"
       ry="3.6718346e-17" />
    <rect
       style="fill:#8f8f8f;fill-opacity:1;stroke:none;stroke-width:0.79375;stroke-linecap:square;stroke-dasharray:1.5875, 0.79375"
       id="rect44200"
       width="0.52916664"
       height="0.26458332"
       x="2.1166666"
       y="1.0583333"
       rx="3.6718346e-17"
       ry="3.6718346e-17" />
    <rect
       style="fill:#8f8f8f;fill-opacity:1;stroke:none;stroke-width:0.79375;stroke-linecap:square;stroke-dasharray:1.5875, 0.79375"
       id="rect44202"
       width="0.52916664"
       height="0.26458332"
       x="2.9104166"
       y="1.0583333"
       rx="3.6718346e-17"
       ry="3.6718346e-17" />
    <path
       id="rect44204"
       style="fill:#8f8f8f;stroke-width:0.79375;stroke-linecap:square;stroke-dasharray:1.5875, 0.79375"
       d="m 3.7041667,1.0583333 h 0.5291666 v 0 0.2645833 0 l 0,0.2645834 H 3.96875 V 1.3229167 l -0.2645833,-10e-8 v 0 z"
       sodipodi:nodetypes="ccccccccccc" />
  </g>
</svg>
